…
us_murder_rate
#> [1] 3.034555
```

### 5.7.3 Group then summarize with `group_by`

A common operation in data exploration is to first split data into groups and then compute summaries for each group. For example, we may want to compute the average and standard deviation for men's and women's heights separately. The `group_by` function helps us do this.

If we type this:
```{r}
heights %>% group_by(sex)
#> # A tibble: 1,050 x 2
#> # Groups:   sex [2]
#>    sex    height
#>    <fct>   <dbl>
#>  1 Male       75
#>  2 Male       70
#>  3 Male       68
#>  4 Male       74
#>  5 Male       61
#>  6 Female     65
#>  7 Female     66
#>  8 Female     62
#>  9 Female     66
#> 10 Male       67
#> # ... with 1,040 more rows
```
…
